{
  "hosting": {
    "public": "dist/sldemands-client",
    "ignore": [
      "firebase.json",
      "**/.*",
      "**/node_modules/**"
    ],
    "rewrites": [
      {
        "source": "**",
        "destination": "/index.html"
      }
    ],
    "headers": [{
      "source": "**",
      "headers": [{
        "key": "Cache-Control",
        "value": "public, max-age=259200"
      }]
    }]
  }
}
